<svg id="Grupo_23" data-name="Grupo 23" xmlns="http://www.w3.org/2000/svg" xmlns:xlink="http://www.w3.org/1999/xlink" width="58.38" height="125.401" viewBox="0 0 58.38 125.401">
  <defs>
    <clipPath id="clip-path">
      <rect id="Rectángulo_9" data-name="Rectángulo 9" width="58.38" height="125.401" fill="none" stroke="#fdf7f4" stroke-width="1"/>
    </clipPath>
  </defs>
  <path id="Trazado_14" data-name="Trazado 14" d="M53.2,124.8v0Z" transform="translate(-23.496 -0.884)" stroke="#fdf7f4" stroke-width="1"/>
  <g id="Grupo_22" data-name="Grupo 22">
    <g id="Grupo_21" data-name="Grupo 21" clip-path="url(#clip-path)">
      <line id="Línea_4" data-name="Línea 4" y2="122.799" transform="translate(29.707 1.117)" fill="none" stroke="#fdf7f4" stroke-linecap="round" stroke-width="4"/>
      <path id="Trazado_15" data-name="Trazado 15" d="M2,177.884,30.59,202.2l27.556-24.931" transform="translate(-0.883 -78.289)" fill="none" stroke="#fdf7f4" stroke-linecap="round" stroke-width="4"/>
    </g>
  </g>
</svg>
