<svg xmlns="http://www.w3.org/2000/svg" xmlns:xlink="http://www.w3.org/1999/xlink" width="34.605" height="46.163" viewBox="0 0 34.605 46.163">
  <defs>
    <clipPath id="clip-path">
      <rect id="Rectángulo_85" data-name="Rectángulo 85" width="34.605" height="46.163" fill="#fdf7f4"/>
    </clipPath>
  </defs>
  <g id="Grupo_127" data-name="Grupo 127" clip-path="url(#clip-path)">
    <path id="Trazado_62" data-name="Trazado 62" d="M17.034,46.163A80.79,80.79,0,0,1,9.641,37.99,57.97,57.97,0,0,1,2.657,27.2a25.432,25.432,0,0,1-2.5-7.714A16.533,16.533,0,0,1,2.548,8.313,16.929,16.929,0,0,1,14.657.22,17.33,17.33,0,0,1,33.481,23.5,43.952,43.952,0,0,1,27.792,34.2,84.034,84.034,0,0,1,18.027,45.74c-.146.146-.3.282-.452.423ZM17.32,25.25a7.932,7.932,0,1,0-7.947-7.927A7.946,7.946,0,0,0,17.32,25.25" transform="translate(0 0)" fill="#fdf7f4"/>
  </g>
</svg>
